%YAML 1.1
%TAG !u! tag:unity3d.com,2011:
--- !u!114 &11400000
MonoBehaviour:
  m_ObjectHideFlags: 0
  m_CorrespondingSourceObject: {fileID: 0}
  m_PrefabInstance: {fileID: 0}
  m_PrefabAsset: {fileID: 0}
  m_GameObject: {fileID: 0}
  m_Enabled: 1
  m_EditorHideFlags: 0
  m_Script: {fileID: 11500000, guid: ce28441dbc0e3854c9fe3afb733040b3, type: 3}
  m_Name: CapsulePlayerControllerSettingsPreset-Preset2
  m_EditorClassIdentifier: 
  RotationSpeed: 180
  DirectionalSpeed: 3
  DirectionalSprintSpeed: 5
  ForwardKey: 34
  BackwardKey: 21
  TurnLeftKey: 20
  TurnRightKey: 22
  SprintKey: 3
  InteractionKey: 40
