%YAML 1.1
%TAG !u! tag:unity3d.com,2011:
--- !u!114 &11400000
MonoBehaviour:
  m_ObjectHideFlags: 0
  m_CorrespondingSourceObject: {fileID: 0}
  m_PrefabInstance: {fileID: 0}
  m_PrefabAsset: {fileID: 0}
  m_GameObject: {fileID: 0}
  m_Enabled: 1
  m_EditorHideFlags: 0
  m_Script: {fileID: 11500000, guid: dc38003c0e0db6641a4762d4f392de52, type: 3}
  m_Name: PrefabPalette-Default
  m_EditorClassIdentifier: 
  prefabs:
  - gameObject: {fileID: 919132149155446097, guid: 94d9c13fe73d1c34a8d153fff1d27037, type: 3}
    settings:
      m_Strength: 50
      m_RotationRangeMin: {x: 0, y: 0, z: 0}
      m_RotationRangeMax: {x: 0, y: 0, z: 0}
      m_ScaleRangeMin: {x: 1, y: 1, z: 1}
      m_ScaleRangeMax: {x: 1, y: 1, z: 1}
      m_UniformScale: {x: 1, y: 1}
      m_UniformBool: 0
      m_XRotationBool: 0
      m_YRotationBool: 0
      m_ZRotationBool: 0
      m_XScaleBool: 0
      m_YScaleBool: 0
      m_ZScaleBool: 0
    name: flower_redA
  - gameObject: {fileID: 919132149155446097, guid: 7fc18ed81c7eb014b865e90ba1035dd0, type: 3}
    settings:
      m_Strength: 50
      m_RotationRangeMin: {x: 0, y: 0, z: 0}
      m_RotationRangeMax: {x: 0, y: 0, z: 0}
      m_ScaleRangeMin: {x: 1, y: 1, z: 1}
      m_ScaleRangeMax: {x: 1, y: 1, z: 1}
      m_UniformScale: {x: 1, y: 1}
      m_UniformBool: 0
      m_XRotationBool: 0
      m_YRotationBool: 0
      m_ZRotationBool: 0
      m_XScaleBool: 0
      m_YScaleBool: 0
      m_ZScaleBool: 0
    name: flower_yellowA
  - gameObject: {fileID: 919132149155446097, guid: 36f56696ec66bb44294f6c5e9230b8c5, type: 3}
    settings:
      m_Strength: 50
      m_RotationRangeMin: {x: 0, y: 0, z: 0}
      m_RotationRangeMax: {x: 0, y: 0, z: 0}
      m_ScaleRangeMin: {x: 1, y: 1, z: 1}
      m_ScaleRangeMax: {x: 1, y: 1, z: 1}
      m_UniformScale: {x: 1, y: 1}
      m_UniformBool: 0
      m_XRotationBool: 0
      m_YRotationBool: 0
      m_ZRotationBool: 0
      m_XScaleBool: 0
      m_YScaleBool: 0
      m_ZScaleBool: 0
    name: flower_purpleB
  - gameObject: {fileID: 919132149155446097, guid: 98d7fb962af375a4ba648e2f9403fab1, type: 3}
    settings:
      m_Strength: 50
      m_RotationRangeMin: {x: 0, y: 0, z: 0}
      m_RotationRangeMax: {x: 0, y: 0, z: 0}
      m_ScaleRangeMin: {x: 1, y: 1, z: 1}
      m_ScaleRangeMax: {x: 1, y: 1, z: 1}
      m_UniformScale: {x: 1, y: 1}
      m_UniformBool: 0
      m_XRotationBool: 0
      m_YRotationBool: 0
      m_ZRotationBool: 0
      m_XScaleBool: 0
      m_YScaleBool: 0
      m_ZScaleBool: 0
    name: crops_leafsStageA
  - gameObject: {fileID: 919132149155446097, guid: f49d382f95cb041468aa0c224f428d58, type: 3}
    settings:
      m_Strength: 50
      m_RotationRangeMin: {x: 0, y: 0, z: 0}
      m_RotationRangeMax: {x: 0, y: 0, z: 0}
      m_ScaleRangeMin: {x: 1, y: 1, z: 1}
      m_ScaleRangeMax: {x: 1, y: 1, z: 1}
      m_UniformScale: {x: 1, y: 1}
      m_UniformBool: 0
      m_XRotationBool: 0
      m_YRotationBool: 0
      m_ZRotationBool: 0
      m_XScaleBool: 0
      m_YScaleBool: 0
      m_ZScaleBool: 0
    name: crops_leafsStageB
  - gameObject: {fileID: 919132149155446097, guid: 534b0b72008f30447866ffaa2b3b1918, type: 3}
    settings:
      m_Strength: 50
      m_RotationRangeMin: {x: 0, y: 0, z: 0}
      m_RotationRangeMax: {x: 0, y: 0, z: 0}
      m_ScaleRangeMin: {x: 1, y: 1, z: 1}
      m_ScaleRangeMax: {x: 1, y: 1, z: 1}
      m_UniformScale: {x: 1, y: 1}
      m_UniformBool: 0
      m_XRotationBool: 0
      m_YRotationBool: 0
      m_ZRotationBool: 0
      m_XScaleBool: 0
      m_YScaleBool: 0
      m_ZScaleBool: 0
    name: crops_cornStageD
  - gameObject: {fileID: 919132149155446097, guid: 8744adaa3168d4545909072b2e54f3d4, type: 3}
    settings:
      m_Strength: 50
      m_RotationRangeMin: {x: 0, y: 0, z: 0}
      m_RotationRangeMax: {x: 0, y: 0, z: 0}
      m_ScaleRangeMin: {x: 1, y: 1, z: 1}
      m_ScaleRangeMax: {x: 1, y: 1, z: 1}
      m_UniformScale: {x: 1, y: 1}
      m_UniformBool: 0
      m_XRotationBool: 0
      m_YRotationBool: 0
      m_ZRotationBool: 0
      m_XScaleBool: 0
      m_YScaleBool: 0
      m_ZScaleBool: 0
    name: tree_palmBend
  - gameObject: {fileID: 919132149155446097, guid: 26d82d1d015019e45b2e8254af70c33e, type: 3}
    settings:
      m_Strength: 50
      m_RotationRangeMin: {x: 0, y: 0, z: 0}
      m_RotationRangeMax: {x: 0, y: 0, z: 0}
      m_ScaleRangeMin: {x: 1, y: 1, z: 1}
      m_ScaleRangeMax: {x: 1, y: 1, z: 1}
      m_UniformScale: {x: 1, y: 1}
      m_UniformBool: 0
      m_XRotationBool: 0
      m_YRotationBool: 0
      m_ZRotationBool: 0
      m_XScaleBool: 0
      m_YScaleBool: 0
      m_ZScaleBool: 0
    name: tree_palmTall
  - gameObject: {fileID: 919132149155446097, guid: ec39e3c5c14427d448f343116aa2f55e, type: 3}
    settings:
      m_Strength: 50
      m_RotationRangeMin: {x: 0, y: 0, z: 0}
      m_RotationRangeMax: {x: 0, y: 0, z: 0}
      m_ScaleRangeMin: {x: 1, y: 1, z: 1}
      m_ScaleRangeMax: {x: 1, y: 1, z: 1}
      m_UniformScale: {x: 1, y: 1}
      m_UniformBool: 0
      m_XRotationBool: 0
      m_YRotationBool: 0
      m_ZRotationBool: 0
      m_XScaleBool: 0
      m_YScaleBool: 0
      m_ZScaleBool: 0
    name: tree_pineRoundA
  - gameObject: {fileID: 919132149155446097, guid: bb96d172a4967d049b75cf464e7322ec, type: 3}
    settings:
      m_Strength: 50
      m_RotationRangeMin: {x: 0, y: 0, z: 0}
      m_RotationRangeMax: {x: 0, y: 0, z: 0}
      m_ScaleRangeMin: {x: 1, y: 1, z: 1}
      m_ScaleRangeMax: {x: 1, y: 1, z: 1}
      m_UniformScale: {x: 1, y: 1}
      m_UniformBool: 0
      m_XRotationBool: 0
      m_YRotationBool: 0
      m_ZRotationBool: 0
      m_XScaleBool: 0
      m_YScaleBool: 0
      m_ZScaleBool: 0
    name: tree_oak_dark
