%YAML 1.1
%TAG !u! tag:unity3d.com,2011:
--- !u!1001 &2057756985488488649
PrefabInstance:
  m_ObjectHideFlags: 0
  serializedVersion: 2
  m_Modification:
    serializedVersion: 3
    m_TransformParent: {fileID: 0}
    m_Modifications:
    - target: {fileID: 100000, guid: 6da9d5cde97ad394e97f1227e5fbf342, type: 3}
      propertyPath: m_Name
      value: icecream
      objectReference: {fileID: 0}
    - target: {fileID: 400000, guid: 6da9d5cde97ad394e97f1227e5fbf342, type: 3}
      propertyPath: m_LocalScale.x
      value: 2
      objectReference: {fileID: 0}
    - target: {fileID: 400000, guid: 6da9d5cde97ad394e97f1227e5fbf342, type: 3}
      propertyPath: m_LocalScale.y
      value: 2
      objectReference: {fileID: 0}
    - target: {fileID: 400000, guid: 6da9d5cde97ad394e97f1227e5fbf342, type: 3}
      propertyPath: m_LocalScale.z
      value: 2
      objectReference: {fileID: 0}
    - target: {fileID: 400000, guid: 6da9d5cde97ad394e97f1227e5fbf342, type: 3}
      propertyPath: m_LocalPosition.x
      value: -4.315113
      objectReference: {fileID: 0}
    - target: {fileID: 400000, guid: 6da9d5cde97ad394e97f1227e5fbf342, type: 3}
      propertyPath: m_LocalPosition.y
      value: 0.5
      objectReference: {fileID: 0}
    - target: {fileID: 400000, guid: 6da9d5cde97ad394e97f1227e5fbf342, type: 3}
      propertyPath: m_LocalPosition.z
      value: 10.545917
      objectReference: {fileID: 0}
    - target: {fileID: 400000, guid: 6da9d5cde97ad394e97f1227e5fbf342, type: 3}
      propertyPath: m_LocalRotation.w
      value: -0.000000005035869
      objectReference: {fileID: 0}
    - target: {fileID: 400000, guid: 6da9d5cde97ad394e97f1227e5fbf342, type: 3}
      propertyPath: m_LocalRotation.x
      value: 0.29150748
      objectReference: {fileID: 0}
    - target: {fileID: 400000, guid: 6da9d5cde97ad394e97f1227e5fbf342, type: 3}
      propertyPath: m_LocalRotation.y
      value: 0.95656854
      objectReference: {fileID: 0}
    - target: {fileID: 400000, guid: 6da9d5cde97ad394e97f1227e5fbf342, type: 3}
      propertyPath: m_LocalRotation.z
      value: -0.000000024382663
      objectReference: {fileID: 0}
    - target: {fileID: 400000, guid: 6da9d5cde97ad394e97f1227e5fbf342, type: 3}
      propertyPath: m_LocalEulerAnglesHint.x
      value: 0
      objectReference: {fileID: 0}
    - target: {fileID: 400000, guid: 6da9d5cde97ad394e97f1227e5fbf342, type: 3}
      propertyPath: m_LocalEulerAnglesHint.y
      value: -180
      objectReference: {fileID: 0}
    - target: {fileID: 400000, guid: 6da9d5cde97ad394e97f1227e5fbf342, type: 3}
      propertyPath: m_LocalEulerAnglesHint.z
      value: 33.896
      objectReference: {fileID: 0}
    - target: {fileID: 400000, guid: 6da9d5cde97ad394e97f1227e5fbf342, type: 3}
      propertyPath: m_ConstrainProportionsScale
      value: 1
      objectReference: {fileID: 0}
    m_RemovedComponents: []
    m_RemovedGameObjects: []
    m_AddedGameObjects: []
    m_AddedComponents:
    - targetCorrespondingSourceObject: {fileID: 100000, guid: 6da9d5cde97ad394e97f1227e5fbf342, type: 3}
      insertIndex: -1
      addedObject: {fileID: 3072169791141874313}
    - targetCorrespondingSourceObject: {fileID: 100000, guid: 6da9d5cde97ad394e97f1227e5fbf342, type: 3}
      insertIndex: -1
      addedObject: {fileID: 218088550711941836}
  m_SourcePrefab: {fileID: 100100000, guid: 6da9d5cde97ad394e97f1227e5fbf342, type: 3}
--- !u!1 &2057756985488522857 stripped
GameObject:
  m_CorrespondingSourceObject: {fileID: 100000, guid: 6da9d5cde97ad394e97f1227e5fbf342, type: 3}
  m_PrefabInstance: {fileID: 2057756985488488649}
  m_PrefabAsset: {fileID: 0}
--- !u!114 &3072169791141874313
MonoBehaviour:
  m_ObjectHideFlags: 0
  m_CorrespondingSourceObject: {fileID: 0}
  m_PrefabInstance: {fileID: 0}
  m_PrefabAsset: {fileID: 0}
  m_GameObject: {fileID: 2057756985488522857}
  m_Enabled: 1
  m_EditorHideFlags: 0
  m_Script: {fileID: 11500000, guid: 5efb93aff66140938e593a35b14d2f0e, type: 3}
  m_Name: 
  m_EditorClassIdentifier: 
  m_ItemType: 1
--- !u!65 &218088550711941836
BoxCollider:
  m_ObjectHideFlags: 0
  m_CorrespondingSourceObject: {fileID: 0}
  m_PrefabInstance: {fileID: 0}
  m_PrefabAsset: {fileID: 0}
  m_GameObject: {fileID: 2057756985488522857}
  m_Material: {fileID: 0}
  m_IncludeLayers:
    serializedVersion: 2
    m_Bits: 0
  m_ExcludeLayers:
    serializedVersion: 2
    m_Bits: 0
  m_LayerOverridePriority: 0
  m_IsTrigger: 1
  m_ProvidesContacts: 0
  m_Enabled: 1
  serializedVersion: 3
  m_Size: {x: 0.21741498, y: 0.45929042, z: 0.06342989}
  m_Center: {x: 0.00000010058284, y: -0.000000014901161, z: -0.000000009313226}
