{
    "name": "PlayerControlMap",
    "maps": [
        {
            "name": "Gameplay",
            "id": "d2eaaa02-ef45-4d0a-8c5f-a572867fbe5c",
            "actions": [
                {
                    "name": "Horizontal",
                    "type": "Value",
                    "id": "7c06e167-0b26-4fbb-ae91-b99d0c08d591",
                    "expectedControlType": "",
                    "processors": "",
                    "interactions": "",
                    "initialStateCheck": true
                },
                {
                    "name": "Vertical",
                    "type": "Value",
                    "id": "1b077a5c-9005-404f-b60a-5d52b6736253",
                    "expectedControlType": "",
                    "processors": "",
                    "interactions": "",
                    "initialStateCheck": true
                },
                {
                    "name": "Fire1",
                    "type": "Button",
                    "id": "eb6a84ce-e35a-4bc8-b49d-753c5ac6d1ca",
                    "expectedControlType": "Button",
                    "processors": "",
                    "interactions": "Press(behavior=2),Hold",
                    "initialStateCheck": false
                },
                {
                    "name": "Fire2",
                    "type": "Button",
                    "id": "0685ea92-4bc2-42e8-b119-80b059b8ba0a",
                    "expectedControlType": "Button",
                    "processors": "",
                    "interactions": "Press(behavior=2),Hold",
                    "initialStateCheck": false
                }
            ],
            "bindings": [
                {
                    "name": "",
                    "id": "a20a879a-f7cc-4044-85d3-d9061ab1e90b",
                    "path": "<Keyboard>/leftCtrl",
                    "interactions": "",
                    "processors": "",
                    "groups": "",
                    "action": "Fire1",
                    "isComposite": false,
                    "isPartOfComposite": false
                },
                {
                    "name": "",
                    "id": "1a473db8-07ea-45bf-97d5-34589d8d139f",
                    "path": "<Mouse>/leftButton",
                    "interactions": "",
                    "processors": "",
                    "groups": "",
                    "action": "Fire1",
                    "isComposite": false,
                    "isPartOfComposite": false
                },
                {
                    "name": "",
                    "id": "bace92c2-82b4-4372-8d00-cfb89f959d71",
                    "path": "<Keyboard>/leftAlt",
                    "interactions": "",
                    "processors": "",
                    "groups": "",
                    "action": "Fire2",
                    "isComposite": false,
                    "isPartOfComposite": false
                },
                {
                    "name": "",
                    "id": "3e56d90a-b663-4a19-ace5-40f9c565a0ec",
                    "path": "<Mouse>/rightButton",
                    "interactions": "",
                    "processors": "",
                    "groups": "",
                    "action": "Fire2",
                    "isComposite": false,
                    "isPartOfComposite": false
                },
                {
                    "name": "1D Axis",
                    "id": "dda3dcb3-061c-43a1-bdae-ada61598d516",
                    "path": "1DAxis",
                    "interactions": "",
                    "processors": "",
                    "groups": "",
                    "action": "Horizontal",
                    "isComposite": true,
                    "isPartOfComposite": false
                },
                {
                    "name": "negative",
                    "id": "b7f80f80-40b3-415d-99ab-9ffd46a8dc4d",
                    "path": "<Keyboard>/a",
                    "interactions": "",
                    "processors": "",
                    "groups": "",
                    "action": "Horizontal",
                    "isComposite": false,
                    "isPartOfComposite": true
                },
                {
                    "name": "positive",
                    "id": "e2aded47-d6e5-4d9b-84d2-3e914756c47b",
                    "path": "<Keyboard>/d",
                    "interactions": "",
                    "processors": "",
                    "groups": "",
                    "action": "Horizontal",
                    "isComposite": false,
                    "isPartOfComposite": true
                },
                {
                    "name": "1D Axis",
                    "id": "85517c87-07e6-4753-ba92-230f537649fa",
                    "path": "1DAxis",
                    "interactions": "",
                    "processors": "",
                    "groups": "",
                    "action": "Horizontal",
                    "isComposite": true,
                    "isPartOfComposite": false
                },
                {
                    "name": "negative",
                    "id": "988b4425-637e-4272-86e0-16b6c5f3b654",
                    "path": "",
                    "interactions": "",
                    "processors": "",
                    "groups": "",
                    "action": "Horizontal",
                    "isComposite": false,
                    "isPartOfComposite": true
                },
                {
                    "name": "positive",
                    "id": "51ff9f45-30c5-4dc9-a427-a92bb9f641b1",
                    "path": "",
                    "interactions": "",
                    "processors": "",
                    "groups": "",
                    "action": "Horizontal",
                    "isComposite": false,
                    "isPartOfComposite": true
                },
                {
                    "name": "1D Axis",
                    "id": "5b2c965d-0a74-417f-b6a7-381fb2356580",
                    "path": "1DAxis",
                    "interactions": "",
                    "processors": "",
                    "groups": "",
                    "action": "Vertical",
                    "isComposite": true,
                    "isPartOfComposite": false
                },
                {
                    "name": "negative",
                    "id": "ed91cbb5-346c-493a-873c-776bfe0196f1",
                    "path": "<Keyboard>/s",
                    "interactions": "",
                    "processors": "",
                    "groups": "",
                    "action": "Vertical",
                    "isComposite": false,
                    "isPartOfComposite": true
                },
                {
                    "name": "positive",
                    "id": "afe21837-81b1-483f-a2f4-811c9c75a49b",
                    "path": "<Keyboard>/w",
                    "interactions": "",
                    "processors": "",
                    "groups": "",
                    "action": "Vertical",
                    "isComposite": false,
                    "isPartOfComposite": true
                }
            ]
        }
    ],
    "controlSchemes": []
}